%YAML 1.1
%TAG !u! tag:unity3d.com,2011:
--- !u!114 &11400000
MonoBehaviour:
  m_ObjectHideFlags: 0
  m_CorrespondingSourceObject: {fileID: 0}
  m_PrefabInstance: {fileID: 0}
  m_PrefabAsset: {fileID: 0}
  m_GameObject: {fileID: 0}
  m_Enabled: 1
  m_EditorHideFlags: 0
  m_Script: {fileID: 11500000, guid: a0a5bbd901302e649bd4d6d0dd67df8e, type: 3}
  m_Name: ExampleAsteroidSmooth
  m_EditorClassIdentifier: 
  planetRadius: 0.0015
  noiseLayers:
  - name: 
    enabled: 1
    settings:
      noise: 1
      mask: 0
      terrainSeed: 1
      frequency: 10
      amplitude: 0.506
      cropBottom: 0
      cropTop: 1
      noiseOffset: {x: 0, y: 0, z: 0}
  - name: 
    enabled: 0
    settings:
      noise: 0
      mask: 3
      terrainSeed: 479816
      frequency: 7.019999980926514
      amplitude: 0.043
      cropBottom: 0
      cropTop: 0
      noiseOffset: {x: 0, y: 0, z: 0}
  - name: 
    enabled: 0
    settings:
      noise: 0
      mask: 3
      terrainSeed: 523165
      frequency: 10
      amplitude: 0.029
      cropBottom: 0
      cropTop: 0
      noiseOffset: {x: -3.08, y: 0, z: 0}
  - name: 
    enabled: 0
    settings:
      noise: 0
      mask: 3
      terrainSeed: 306422
      frequency: 10
      amplitude: 0.041
      cropBottom: 0
      cropTop: 0
      noiseOffset: {x: -3.08, y: 0, z: 0}
