%YAML 1.1
%TAG !u! tag:unity3d.com,2011:
--- !u!1045 &1
EditorBuildSettings:
  m_ObjectHideFlags: 0
  serializedVersion: 2
  m_Scenes:
  - enabled: 1
    path: Assets/CodeSamples/GravityBalls/Scenes/BallsScene.unity
    guid: a8c004770c159e64db9a2be96d7c15b8
  m_configObjects: {}
